<?xml version="1.0" encoding="UTF-8" standalone="no"?>
<!-- Created with Inkscape (http://www.inkscape.org/) -->

<svg
   xmlns:dc="http://purl.org/dc/elements/1.1/"
   xmlns:cc="http://creativecommons.org/ns#"
   xmlns:rdf="http://www.w3.org/1999/02/22-rdf-syntax-ns#"
   xmlns:svg="http://www.w3.org/2000/svg"
   xmlns="http://www.w3.org/2000/svg"
   xmlns:xlink="http://www.w3.org/1999/xlink"
   xmlns:sodipodi="http://sodipodi.sourceforge.net/DTD/sodipodi-0.dtd"
   xmlns:inkscape="http://www.inkscape.org/namespaces/inkscape"
   version="1.1"
   id="svg80"
   width="250"
   height="250"
   viewBox="0 0 250 250"
   sodipodi:docname="logo.svg"
   inkscape:version="0.92.3 (2405546, 2018-03-11)">
  <metadata
     id="metadata86">
    <rdf:RDF>
      <cc:Work
         rdf:about="">
        <dc:format>image/svg+xml</dc:format>
        <dc:type
           rdf:resource="http://purl.org/dc/dcmitype/StillImage" />
        <dc:title></dc:title>
      </cc:Work>
    </rdf:RDF>
  </metadata>
  <defs
     id="defs84" />
  <sodipodi:namedview
     pagecolor="#ffffff"
     bordercolor="#666666"
     borderopacity="1"
     objecttolerance="10"
     gridtolerance="10"
     guidetolerance="10"
     inkscape:pageopacity="0"
     inkscape:pageshadow="2"
     inkscape:window-width="1280"
     inkscape:window-height="1358"
     id="namedview82"
     showgrid="false"
     showguides="true"
     inkscape:guide-bbox="true"
     inkscape:measure-start="0,0"
     inkscape:measure-end="0,0"
     inkscape:zoom="3.2704271"
     inkscape:cx="51.52074"
     inkscape:cy="135.75669"
     inkscape:window-x="0"
     inkscape:window-y="0"
     inkscape:window-maximized="1"
     inkscape:current-layer="svg80">
    <sodipodi:guide
       position="151.70891,70.320011"
       orientation="0,1"
       id="guide94"
       inkscape:locked="false" />
    <sodipodi:guide
       position="250,337.92672"
       orientation="1,0"
       id="guide96"
       inkscape:locked="false"
       inkscape:label=""
       inkscape:color="rgb(0,0,255)" />
    <sodipodi:guide
       position="0,194.03114"
       orientation="1,0"
       id="guide98"
       inkscape:locked="false"
       inkscape:label=""
       inkscape:color="rgb(0,0,255)" />
    <sodipodi:guide
       position="283.14345,170"
       orientation="0,1"
       id="guide346"
       inkscape:locked="false"
       inkscape:label=""
       inkscape:color="rgb(0,0,255)" />
  </sodipodi:namedview>
  <g
     id="g361"
     inkscape:export-xdpi="96"
     inkscape:export-ydpi="96"
     style="fill:#4cb5f5;fill-opacity:1">
    <path
       sodipodi:nodetypes="cccc"
       inkscape:connector-curvature="0"
       id="rect350"
       d="m 250,80 c 0,7.212524 0.11204,5.005194 0.11204,15.39913 0,-8.531006 7.72252,-15.39913 17.3159,-15.39913 z"
       style="opacity:1;fill:#4cb5f5;fill-opacity:1;stroke:none;stroke-width:0.36537167" />
    <path
       sodipodi:nodetypes="ccssccc"
       inkscape:connector-curvature="0"
       id="rect273"
       d="m 0,80 v 79.49609 c 0,11.18219 9.0014094,20.1836 20.183594,20.1836 H 229.81641 c 11.18218,0 20.18359,-9.00141 20.18359,-20.1836 V 80 Z"
       style="opacity:1;fill:#4cb5f5;fill-opacity:1;stroke:none;stroke-width:0.60133749" />
    <rect
       y="80.71109"
       x="0"
       height="46.880005"
       width="250"
       id="rect197"
       style="opacity:1;fill:#4cb5f5;fill-opacity:1;stroke:none;stroke-width:0.60861987"
       rx="0"
       ry="0" />
    <image
       width="195.88908"
       height="73.894104"
       preserveAspectRatio="none"
       style="image-rendering:optimizeQuality;fill:#4cb5f5;fill-opacity:1"
       xlink:href="file:///home/micha/Pulpit/logoModnaOld.png"
       id="image343"
       x="24.31027"
       y="95.178436"
       sodipodi:absref="/home/micha/Pulpit/logoModnaOld.png" />
    <path
       style="opacity:1;fill:#4cb5f5;fill-opacity:1;stroke:none;stroke-width:0.36537167"
       d="M 0,80 C 0,87.212524 -0.11204,85.005194 -0.11204,95.39913 -0.11204,86.868124 -7.83456,80 -17.42794,80 Z"
       id="path354"
       inkscape:connector-curvature="0"
       sodipodi:nodetypes="cccc" />
  </g>
</svg>
